{
  "lint": {
    "rules": [
      "polymer-2"
    ]
  },

  "fragments": [
    "src/gestor-clientes/creacion-clientes.html",
    "src/gestor-clientes/edicion-clientes.html",
    "src/gestor-clientes/gestor-clientes.html",
    "src/gestor-clientes/listado-clientes.html",
    "src/gestor-cuentas/creacion-cuentas.html",
    "src/gestor-cuentas/gestor-cuentas.html",
    "src/gestor-login/home-quotes.html",
    "src/gestor-login/register-login.html",
    "src/gestor-login/secret-quotes.html"
  ]
}
